…
[1] "標準データのロジスティック回帰 plots002.jpg に保存"
Warning message:
In polygon(xx, yy, border = NA, col = rgb(0.8, 0.8, 0.8, 0.4)) :
  semi-transparency is not supported on this device: reported only once per page
pdf
  2
[1] "計測データの整形"
# A tibble: 40 × 3
   Sample    Mean       SD
   <fct>    <dbl>    <dbl>
 1 1      0.0397  0.000849
 2 2      0.0371  0.00134
 3 3      0.0337  0.00198
 4 4      0.0158  0.00127
 5 5      0.00205 0.000636
 6 6      0.0878  0.00346
 7 7      0.0482  0.000495
 8 8      0.0279  0.00396
 9 9      0.0855  0.0121
10 10     0.112   0.00665
# ℹ 30 more rows
[1] "計測データのロジスティック回帰開始"
Warning: One (or more) of the provided values were less or equal to the estimated bottom asymptote.
These values have been replaced by the minimal possible value the model can estimate.
# A tibble: 38 × 4
   Absorbance x.025 Concentration x.975
        <dbl> <dbl>         <dbl> <dbl>
 1     0.0397 20.5           43.2  63.6
 2     0.0371 15.9           40.7  61.2
 3     0.0337 13.1           37.1  59.0
 4     0.0158  2.79          16.5  43.4
 5     0.0152  2.43          15.6  41.6
 6     0.0878 67.4           86.2 104.
 7     0.0482 29.9           51.5  71.4
 8     0.0279  9.35          30.9  52.9
 9     0.0855 64.7           84.4 102.
10     0.112  88.2          106.  123.
# ℹ 28 more rows
…
